{
  "Routes": [

    {
      "DownstreamPathTemplate": "/api/{url}",
      "DownstreamScheme": "http",
      "DownstreamHostAndPorts": [
        {
          "Host": "localhost",
          "Port": 56708
        }
      ],
      "UpstreamPathTemplate": "/api-empleado/{url}",
      "Priority": 0,
      "UpstreamHttpMethod": [ "GET", "POST", "PUT", "DELETE" ],
      "SwaggerKey": "empleado"

    }
  ]

}
