{
  "Routes": [
    {
      "DownstreamPathTemplate": "/api/{url}",
      "DownstreamScheme": "http",
      "DownstreamHostAndPorts": [
        {
          "Host": "localhost",
          "Port": 56535
        }
      ],
      "UpstreamPathTemplate": "/api-unidad/{url}",
      "UpstreamHttpMethod": [ "GET", "POST", "PUT", "DELETE" ],
      "SwaggerKey": "unidad"
    }
  ]
}
